## Interface: 30300
## Title: WoW-Legendary |r|c0080ff80 Character |r|cFFE0E080 Transfer|r Para la version 3.3.5a(12340) game version
## Author: Dev Zeros WoW-Legendary.
## Notes: |TEnvironments\Stars\Nexus_data_curtain_blur:180:120|t
## Version: 380.335
## SavedVariables: CHDMP_DATA, CHDMP_KEY

luaglobal.lua
b64.lua
sha1.lua

json\json.lua

datastore.lua
zwgamers.lua